Division,WeightClassKg,Place,Name,Team,BodyweightKg,Best3SquatKg,Best3BenchKg,Best3DeadliftKg,TotalKg,Equipment,Event,Sex
Boys,51.71,1,Callum Hurst,Coahoma,49.35,115.67,61.23,113.4,290.3,Single-ply,SBD,M
Boys,51.71,2,Joseph Martinez,Colorado City Colorado,49.62,83.91,56.7,111.13,251.74,Single-ply,SBD,M
Boys,51.71,3,Connor Steel,Forsan,50.26,83.91,52.16,102.06,238.14,Single-ply,SBD,M
Boys,51.71,4,Damond Humiston,Snyder,50.53,70.31,45.36,90.72,206.38,Single-ply,SBD,M
Boys,51.71,5,Aaron Carroll,Big Spring,36.92,49.9,24.95,68.04,142.88,Single-ply,SBD,M
Boys,59.87,1,Tyler Nairn,Big Spring,55.88,167.83,83.91,165.56,417.3,Single-ply,SBD,M
Boys,55.79,2,Colter Reed,Sweetwater,55.43,90.72,68.04,122.47,281.23,Single-ply,SBD,M
Boys,59.87,3,Nathan Browning,Sweetwater,56.02,95.25,58.97,92.99,247.21,Single-ply,SBD,M
Boys,55.79,DQ,Luke Krueger,Snyder,53.61,81.65,,,,Single-ply,SBD,M
Boys,59.87,1,Trenton Crenshaw,Coahoma,59.33,151.95,92.99,154.22,399.16,Single-ply,SBD,M
Boys,59.87,2,Zachary Salazar,Lamesa,58.42,127.01,79.38,136.08,342.46,Single-ply,SBD,M
Boys,67.13,3,Blaze Yeater,Forsan,60.06,120.2,70.31,140.61,331.12,Single-ply,SBD,M
Boys,59.87,4,Dillon Daniel,Forsan,58.06,124.74,70.31,124.74,319.78,Single-ply,SBD,M
Boys,59.87,5,Jonathan Rankin,Colorado City Colorado,58.97,104.33,65.77,113.4,283.5,Single-ply,SBD,M
Boys,59.87,6,Austin Willman,Roscoe,59.78,102.06,56.7,111.13,269.89,Single-ply,SBD,M
Boys,59.87,7,Campbell Cowan,Lamesa,59.69,83.91,45.36,83.91,213.19,Single-ply,SBD,M
Boys,59.87,8,Chase Raney,Lamesa,59.51,70.31,45.36,86.18,201.85,Single-ply,SBD,M
Boys,74.84,1,Robert Martinez,Big Spring,67.36,174.63,115.67,176.9,467.2,Single-ply,SBD,M
Boys,67.13,2,Jordan Davis #4,Snyder,65.95,154.22,95.25,190.51,439.98,Single-ply,SBD,M
Boys,67.13,3,Mario Manquero,Garden City,63.05,158.76,102.06,174.63,435.45,Single-ply,SBD,M
Boys,67.13,4,Brian Amador,Lamesa,61.05,147.42,99.79,145.15,392.36,Single-ply,SBD,M
Boys,67.13,5,Ismael Ramirez,Garden City,67.04,136.08,79.38,147.42,362.87,Single-ply,SBD,M
Boys,67.13,6,Isaiah Enriquez,Garden City,63.14,136.08,68.04,140.61,344.73,Single-ply,SBD,M
Boys,67.13,7,Paul Cortez,Coahoma,66.13,129.27,90.72,108.86,328.85,Single-ply,SBD,M
Boys,67.13,8,Brendan Garza,Snyder,65.95,129.27,72.57,124.74,326.59,Single-ply,SBD,M
Boys,67.13,9,Braiden Moore,Roscoe,61.42,106.59,56.7,120.2,283.5,Single-ply,SBD,M
Boys,67.13,10,Kyle Branson,Lamesa,60.55,70.31,56.7,113.4,240.4,Single-ply,SBD,M
Boys,67.13,11,Joe Franco,Colorado City Colorado,66.04,92.99,38.56,99.79,231.33,Single-ply,SBD,M
Boys,67.13,DQ,Brent Glasco,Forsan,66.59,,,,,Single-ply,SBD,M
Boys,67.13,DQ,Lorenzo Jones,Big Spring,66.22,97.52,,,,Single-ply,SBD,M
Boys,67.13,DQ,Bandera Wood,Roby,66.5,,,,,Single-ply,SBD,M
Boys,82.1,1,Austin Grantham,Forsan,75.02,167.83,113.4,181.44,462.66,Single-ply,SBD,M
Boys,74.84,2,Jake Samaneigo,Lamesa,68.13,167.83,104.33,161.03,433.18,Single-ply,SBD,M
Boys,74.84,3,Branson Guelker,Sweetwater,70.31,122.47,77.11,142.88,342.46,Single-ply,SBD,M
Boys,74.84,4,Manuel Galvan,Big Spring,74.75,120.2,72.57,124.74,317.51,Single-ply,SBD,M
Boys,74.84,5,Darian Espinosa,Colorado City Colorado,73.03,92.99,65.77,111.13,269.89,Single-ply,SBD,M
Boys,74.84,6,Brantz Burchett,Big Spring,72.12,102.06,63.5,97.52,263.08,Single-ply,SBD,M
Boys,74.84,7,Seth Myers,Colorado City Colorado,70.94,74.84,68.04,117.93,260.82,Single-ply,SBD,M
Boys,74.84,DQ,Rafe Royall,Garden City,71.58,124.74,,,,Single-ply,SBD,M
Boys,82.1,DQ,Steven Lee #3,Sweetwater,75.07,165.56,106.59,,,Single-ply,SBD,M
Boys,82.1,1,Austin Marlett,Sweetwater,80.29,181.44,113.4,183.7,478.54,Single-ply,SBD,M
Boys,82.1,2,Carlos Hinojosa,Lamesa,78.29,176.9,97.52,185.97,460.4,Single-ply,SBD,M
Boys,82.1,3,Junior Lawhan,Sweetwater,81.92,158.76,102.06,158.76,419.57,Single-ply,SBD,M
Boys,89.81,4,Ray Bohall,Roscoe,82.33,124.74,74.84,129.27,328.85,Single-ply,SBD,M
Boys,82.1,5,Caleb Thomas,Snyder,76.48,102.06,79.38,120.2,301.64,Single-ply,SBD,M
Boys,89.81,DQ,Taylon Kincaid,Coahoma,82.28,120.2,,,,Single-ply,SBD,M
Boys,89.81,1,Joe Melendez,Coahoma,88.27,244.94,133.81,217.72,596.47,Single-ply,SBD,M
Boys,89.81,2,Jordan Rinehart,Snyder,86.64,172.37,117.93,201.85,492.15,Single-ply,SBD,M
Boys,89.81,3,Zach Garcia,Sweetwater,85.73,165.56,113.4,165.56,444.52,Single-ply,SBD,M
Boys,89.81,4,Dylan Jimenez,Sweetwater,89.54,156.49,97.52,176.9,430.91,Single-ply,SBD,M
Boys,89.81,5,Myles Jones,Big Spring,83.46,147.42,104.33,124.74,376.48,Single-ply,SBD,M
Boys,89.81,6,Mason Lane,Big Spring,84.82,136.08,68.04,151.95,356.07,Single-ply,SBD,M
Boys,89.81,7,Jorge Salais,Garden City,84.55,108.86,68.04,140.61,317.51,Single-ply,SBD,M
Boys,89.81,8,Rody Mann,Roscoe,85,97.52,63.5,120.2,281.23,Single-ply,SBD,M
Boys,89.81,9,Christopher Mims,Forsan,87,92.99,61.23,117.93,272.16,Single-ply,SBD,M
Boys,89.81,10,Marcos Hernandez,Lamesa,88.36,90.72,65.77,113.4,269.89,Single-ply,SBD,M
Boys,99.79,1,Shawn Walker,Garden City,94.44,197.31,138.35,199.58,535.24,Single-ply,SBD,M
Boys,99.79,2,Anthony Williams,Big Spring,97.52,174.63,111.13,147.42,433.18,Single-ply,SBD,M
Boys,99.79,3,Raymond Delgado,Sweetwater,90.81,145.15,92.99,145.15,383.29,Single-ply,SBD,M
Boys,99.79,4,Orean Pineda,Colorado City Colorado,96.16,136.08,86.18,149.69,371.95,Single-ply,SBD,M
Boys,99.79,5,Oden Yanez,Big Spring,98.88,154.22,81.65,136.08,371.95,Single-ply,SBD,M
Boys,99.79,6,Josh Salazar,Colorado City Colorado,99.34,136.08,79.38,136.08,351.53,Single-ply,SBD,M
Boys,99.79,7,Luis Cruz,Snyder,92.62,151.95,81.65,102.06,335.66,Single-ply,SBD,M
Boys,99.79,8,Jacob Lehner,Snyder,93.71,113.4,70.31,106.59,290.3,Single-ply,SBD,M
Boys,109.77,9,Jonah McGuire,Snyder,100.02,47.63,99.79,90.72,238.14,Single-ply,SBD,M
Boys,99.79,DQ,Collin Sutton,Big Spring,97.07,99.79,81.65,136.08,,Single-ply,SBD,M
Boys,109.77,1,Zak Walton,Coahoma,103.42,226.8,151.95,210.92,589.67,Single-ply,SBD,M
Boys,109.77,2,Rudy Brito,Coahoma,109.77,226.8,142.88,172.37,542.04,Single-ply,SBD,M
Boys,109.77,3,Israel Beltran,Colorado City Colorado,105.41,181.44,127.01,190.51,498.95,Single-ply,SBD,M
Boys,109.77,4,Cory Mendez,Sweetwater,101.97,195.04,92.99,204.12,492.15,Single-ply,SBD,M
Boys,109.77,5,Seth Gonzales,Roby,102.06,192.78,133.81,165.56,492.15,Single-ply,SBD,M
Boys,109.77,6,Taylor Morin #1,Forsan,101.97,199.58,95.25,190.51,485.34,Single-ply,SBD,M
Boys,109.77,7,Charlie Boling,Big Spring,106.59,181.44,129.27,174.63,485.34,Single-ply,SBD,M
Boys,109.77,8,Justin Trawick,Colorado City Colorado,109.13,158.76,95.25,158.76,412.77,Single-ply,SBD,M
Boys,109.77,9,Carlos Gallegos,Sweetwater,108.77,147.42,92.99,170.1,410.5,Single-ply,SBD,M
Boys,109.77,10,Ryan Martinez,Snyder,107.95,124.74,104.33,147.42,376.48,Single-ply,SBD,M
Boys,109.77,11,Sean Humphrey,Snyder,102.06,136.08,95.25,136.08,367.41,Single-ply,SBD,M
Boys,109.77,12,Levi Molina,Big Spring,107.23,142.88,81.65,127.01,351.53,Single-ply,SBD,M
Boys,124.74,1,Aric Rutledge,Big Spring,121.11,217.72,117.93,219.99,555.65,Single-ply,SBD,M
Boys,124.74,2,Ausden Medrano,Forsan,117.39,208.65,127.01,210.92,546.58,Single-ply,SBD,M
Boys,124.74,3,Aaron Steelman,Snyder,122.11,199.58,127.01,192.78,519.36,Single-ply,SBD,M
Boys,124.74,4,Phillip Bacon,Coahoma,123.83,204.12,113.4,188.24,505.76,Single-ply,SBD,M
Boys,124.74,5,Nick Conner,Big Spring,120.66,185.97,117.93,190.51,494.42,Single-ply,SBD,M
Boys,124.74,6,Aaron Enriquez,Garden City,112.67,183.7,113.4,190.51,487.61,Single-ply,SBD,M
Boys,124.74,7,Isaias Aguilar,Roscoe,115.67,197.31,115.67,165.56,478.54,Single-ply,SBD,M
Boys,124.74,8,Brenon Brunson,Snyder,121.83,195.04,117.93,158.76,471.74,Single-ply,SBD,M
Boys,124.74,9,Nick Perez,Snyder,116.3,181.44,90.72,192.78,464.93,Single-ply,SBD,M
Boys,124.74,10,Jose Jimenez #3,Snyder,119.11,156.49,106.59,158.76,421.84,Single-ply,SBD,M
Boys,124.74,11,Frankie Ortega,Sweetwater,121.56,149.69,70.31,136.08,356.07,Single-ply,SBD,M
Boys,124.74+,DQ,Clayton Chadwick,Roscoe,124.96,151.95,,,,Single-ply,SBD,M
Boys,124.74,DQ,Steven Davis,Forsan,116.39,,,,,Single-ply,SBD,M
Boys,124.74+,1,Jeremy Garza,Snyder,134.08,240.4,158.76,226.8,625.96,Single-ply,SBD,M
Boys,124.74+,2,Andrew Davis,Sweetwater,127.01,161.03,158.76,181.44,501.22,Single-ply,SBD,M
Boys,124.74+,3,Tom Rivera,Colorado City Colorado,133.81,176.9,136.08,174.63,487.61,Single-ply,SBD,M
Boys,124.74+,4,Francisco Esparza,Snyder,131.27,136.08,92.99,149.69,378.75,Single-ply,SBD,M
Boys,124.74+,5,Blantyn Gusman,Big Spring,128.37,120.2,70.31,158.76,349.27,Single-ply,SBD,M
