Division,WeightClassKg,Place,Name,Team,BodyweightKg,Best3SquatKg,Best3BenchKg,Best3DeadliftKg,TotalKg,Equipment,Event,Sex
Boys,51.71,1,Blake Johnson,Winnie East Chambers,50.71,52.16,47.63,97.52,197.31,Single-ply,SBD,M
Boys,59.87,1,Quinten Kahla,Winnie East Chambers,55.88,90.72,63.5,97.52,251.74,Single-ply,SBD,M
Boys,67.13,1,Dylan Whitaker,Winnie East Chambers,60.06,117.93,74.84,113.4,306.17,Single-ply,SBD,M
Boys,67.13,1,Caleb Modzelewski,Sour Lake Hardin-Jefferson,64.68,149.69,102.06,174.63,426.38,Single-ply,SBD,M
Boys,67.13,2,Tj Wilson,Coldspring-Oakhurst,66.59,151.95,92.99,161.03,405.97,Single-ply,SBD,M
Boys,67.13,3,Garrett Hawthorne,Cleveland Tarkington,61.51,151.95,81.65,142.88,376.48,Single-ply,SBD,M
Boys,67.13,4,Brad Bayless,Cleveland Tarkington,67.13,136.08,79.38,147.42,362.87,Single-ply,SBD,M
Boys,67.13,5,Josh Hall,Sour Lake Hardin-Jefferson,65.68,117.93,83.91,145.15,347,Single-ply,SBD,M
Boys,74.84,1,Ontrevon Cooper,Coldspring-Oakhurst,74.84,199.58,113.4,163.29,476.27,Single-ply,SBD,M
Boys,74.84,2,Titus King,Winnie East Chambers,72.76,158.76,99.79,181.44,439.98,Single-ply,SBD,M
Boys,74.84,3,Daniel Perrigin,Cleveland Tarkington,74.39,165.56,104.33,170.1,439.98,Single-ply,SBD,M
Boys,74.84,4,Porter May,Anahuac,68.49,136.08,90.72,165.56,392.36,Single-ply,SBD,M
Boys,74.84,5,Michael Streeter,Winnie East Chambers,72.76,147.42,79.38,154.22,381.02,Single-ply,SBD,M
Boys,74.84,6,Jaime Rivas,Anahuac,74.84,129.27,86.18,151.95,367.41,Single-ply,SBD,M
Boys,74.84,7,Chris Smart,Anahuac,74.39,129.27,74.84,154.22,358.34,Single-ply,SBD,M
Boys,74.84,8,Riley Wilson #3,Anahuac,68.58,127.01,83.91,140.61,351.53,Single-ply,SBD,M
Boys,74.84,9,Taylor Irby,Anahuac,74.84,102.06,74.84,111.13,288.03,Single-ply,SBD,M
Boys,74.84,DQ,Joshua Sims,Winnie East Chambers,72.48,,81.65,,,Single-ply,SBD,M
Boys,82.1,1,Dalton Horn,Sour Lake Hardin-Jefferson,77.2,183.7,129.27,197.31,510.29,Single-ply,SBD,M
Boys,82.1,2,Blaine Acevedo,Winnie East Chambers,81.19,192.78,108.86,181.44,483.08,Single-ply,SBD,M
Boys,82.1,3,Taylor Reddell,Winnie East Chambers,76.84,183.7,111.13,174.63,469.47,Single-ply,SBD,M
Boys,82.1,4,Justin Presswood,Coldspring-Oakhurst,76.48,154.22,97.52,183.7,435.45,Single-ply,SBD,M
Boys,82.1,5,Jonathan Giles,Cleveland Tarkington,79.02,163.29,102.06,170.1,435.45,Single-ply,SBD,M
Boys,82.1,6,Dalen Guillory,Sour Lake Hardin-Jefferson,81.65,165.56,97.52,170.1,433.18,Single-ply,SBD,M
Boys,82.1,7,Garrett Floyd,Sour Lake Hardin-Jefferson,82.01,158.76,97.52,176.9,433.18,Single-ply,SBD,M
Boys,82.1,8,James Hvamstad,Anahuac,75.75,151.95,104.33,170.1,426.38,Single-ply,SBD,M
Boys,82.1,9,Jonathan Kirchner,Cleveland Tarkington,75.66,151.95,104.33,158.76,415.04,Single-ply,SBD,M
Boys,82.1,10,Trey Finnex,Anahuac,75.3,140.61,92.99,176.9,410.5,Single-ply,SBD,M
Boys,82.1,11,Frankie Rodriguez #2,Winnie East Chambers,77.38,158.76,81.65,158.76,399.16,Single-ply,SBD,M
Boys,82.1,12,Javier Hernandez,Anahuac,77.56,131.54,92.99,151.95,376.48,Single-ply,SBD,M
Boys,82.1,13,Jared Broussard,Anahuac,78.47,108.86,88.45,113.4,310.71,Single-ply,SBD,M
Boys,82.1,14,Edgar Delacruz,Anahuac,78.83,68.04,56.7,102.06,226.8,Single-ply,SBD,M
Boys,82.1,DQ,Kirby Johnson,Winnie East Chambers,82.1,158.76,,163.29,,Single-ply,SBD,M
Boys,89.81,1,Colton LaFrance,Cleveland Tarkington,88.99,158.76,90.72,161.03,410.5,Single-ply,SBD,M
Boys,89.81,2,Shane Obannion,Sour Lake Hardin-Jefferson,82.92,129.27,88.45,158.76,376.48,Single-ply,SBD,M
Boys,109.77,1,Joseph Stover,Coldspring-Oakhurst,99.97,224.53,129.27,215.46,569.26,Single-ply,SBD,M
Boys,109.77,2,Jonathan Swint,Coldspring-Oakhurst,99.88,151.95,108.86,179.17,439.98,Single-ply,SBD,M
Boys,99.79,3,Jarred Lezak,Winnie East Chambers,99.79,170.1,108.86,158.76,437.72,Single-ply,SBD,M
Boys,99.79,4,Miguel Martinez,Cleveland Tarkington,92.44,183.7,117.93,129.27,430.91,Single-ply,SBD,M
Boys,99.79,5,Lee McNair,Sour Lake Hardin-Jefferson,97.98,156.49,86.18,181.44,424.11,Single-ply,SBD,M
Boys,99.79,6,Barrett Franzen,Winnie East Chambers,99.79,158.76,102.06,158.76,419.57,Single-ply,SBD,M
Boys,99.79,7,Curt Schloderer,Winnie East Chambers,93.35,158.76,90.72,154.22,403.7,Single-ply,SBD,M
Boys,99.79,8,Tyler Jarboe,Cleveland Tarkington,92.9,140.61,81.65,151.95,374.21,Single-ply,SBD,M
Boys,109.77,1,Cj Duenas,Coldspring-Oakhurst,101.79,238.14,127.01,249.48,614.62,Single-ply,SBD,M
Boys,109.77,2,Chance Andries,Coldspring-Oakhurst,101.33,174.63,127.01,197.31,498.95,Single-ply,SBD,M
Boys,109.77,3,Justin Hebert,Winnie East Chambers,103.42,127.01,81.65,154.22,362.87,Single-ply,SBD,M
Boys,109.77,4,Blaine Rhodes,Winnie East Chambers,101.7,122.47,90.72,145.15,358.34,Single-ply,SBD,M
Boys,109.77,DQ,Kyle McCrary,Winnie East Chambers,108.14,,136.08,188.24,,Single-ply,SBD,M
Boys,124.74,1,Shawn Warner,Cleveland Tarkington,118.84,183.7,115.67,188.24,487.61,Single-ply,SBD,M
Boys,124.74,2,Ronald Seabridge,Sour Lake Hardin-Jefferson,118.93,151.95,108.86,204.12,464.93,Single-ply,SBD,M
Boys,124.74,3,Von Cross,Coldspring-Oakhurst,112.26,156.49,92.99,151.95,401.43,Single-ply,SBD,M
Boys,124.74,4,Justin Jamail,Cleveland Tarkington,124.47,149.69,88.45,158.76,396.89,Single-ply,SBD,M
Boys,124.74,5,Nathan Walker,Cleveland Tarkington,118.39,106.59,90.72,151.95,349.27,Single-ply,SBD,M
Boys,124.74,DQ,Jared Brottem,Sour Lake Hardin-Jefferson,116.03,154.22,79.38,,,Single-ply,SBD,M
Boys,124.74+,1,Nolan Walker,Coldspring-Oakhurst,128.64,217.72,133.81,226.8,578.33,Single-ply,SBD,M
Boys,124.74+,2,Dontrell Smith,Anahuac,137.44,213.19,124.74,192.78,530.7,Single-ply,SBD,M
Boys,124.74+,3,Michael Laughlin,Coldspring-Oakhurst,129.27,158.76,115.67,170.1,444.52,Single-ply,SBD,M
