Division,WeightClassKg,Place,Name,Team,BodyweightKg,Best3SquatKg,Best3BenchKg,Best3DeadliftKg,TotalKg,Equipment,Event,Sex
Boys,55.79,1,Jose Cordero,Abilene,51.89,113.4,72.57,120.2,306.17,Single-ply,SBD,M
Boys,51.71,2,Rex Wyatt,Hawley,51.71,117.93,74.84,99.79,292.57,Single-ply,SBD,M
Boys,51.71,3,Weston Hartmann,Abilene,50.53,106.59,63.5,117.93,288.03,Single-ply,SBD,M
Boys,59.87,1,Jaxon Sullivan,Clyde,55.88,142.88,83.91,142.88,369.68,Single-ply,SBD,M
Boys,55.79,2,Jay Lomas,Sweetwater,54.98,127.01,88.45,142.88,358.34,Single-ply,SBD,M
Boys,55.79,3,Zach Flores,Abilene,54.98,124.74,90.72,124.74,340.19,Single-ply,SBD,M
Boys,55.79,4,Nate Martinez #1,Loraine,55.7,124.74,68.04,136.08,328.85,Single-ply,SBD,M
Boys,55.79,5,Jonathan Rodriguez,Abilene Cooper,54.25,102.06,74.84,145.15,322.05,Single-ply,SBD,M
Boys,55.79,6,Drew Votaw,Merkel,55.7,122.47,70.31,129.27,322.05,Single-ply,SBD,M
Boys,55.79,7,Austin Hodnett,Tuscola Jim Ned,55.25,104.33,65.77,129.27,299.37,Single-ply,SBD,M
Boys,55.79,8,Nick Torres,Merkel,54.16,108.86,63.5,122.47,294.84,Single-ply,SBD,M
Boys,59.87,1,Jose Morantes,Dublin,59.78,156.49,102.06,192.78,451.32,Single-ply,SBD,M
Boys,67.13,2,Jon Seabourn,Clyde,60.06,176.9,102.06,156.49,435.45,Single-ply,SBD,M
Boys,59.87,3,David Valdez,Eden,58.88,151.95,81.65,167.83,401.43,Single-ply,SBD,M
Boys,67.13,4,Tristin Cauthen,Clyde,60.06,140.61,102.06,156.49,399.16,Single-ply,SBD,M
Boys,59.87,5,Johnathan Browning,Sweetwater,59.33,131.54,83.91,145.15,360.61,Single-ply,SBD,M
Boys,59.87,6,Geordan McCoy,Abilene Cooper,57.7,120.2,72.57,122.47,315.25,Single-ply,SBD,M
Boys,59.87,7,Cole Allen,Dublin,59.87,111.13,65.77,127.01,303.91,Single-ply,SBD,M
Boys,59.87,8,Peyton Polston,Tuscola Jim Ned,57.06,102.06,68.04,122.47,292.57,Single-ply,SBD,M
Boys,59.87,9,Brett Underwood,Clyde,56.97,74.84,61.23,102.06,238.14,Single-ply,SBD,M
Boys,59.87,DQ,Till Siebert,Loraine,59.15,,,,,Single-ply,SBD,M
Boys,67.13,1,Bryce DeVore,Hawley,65.86,204.12,102.06,181.44,487.61,Single-ply,SBD,M
Boys,67.13,2,Donald Baker,Sweetwater,64.77,170.1,102.06,174.63,446.79,Single-ply,SBD,M
Boys,67.13,3,Kv Hazlett,Abilene Cooper,64.32,172.37,106.59,163.29,442.25,Single-ply,SBD,M
Boys,67.13,4,Dustin Gollihar,Clyde,66.13,147.42,113.4,170.1,430.91,Single-ply,SBD,M
Boys,67.13,5,Terrance Sims,Abilene Cooper,65.59,154.22,111.13,158.76,424.11,Single-ply,SBD,M
Boys,67.13,6,Daniel Medina,Stamford,65.41,167.83,86.18,167.83,421.84,Single-ply,SBD,M
Boys,67.13,7,Austin Marlett,Sweetwater,66.68,163.29,95.25,156.49,415.04,Single-ply,SBD,M
Boys,67.13,8,Mario Gonzales,Stamford,63.41,147.42,88.45,151.95,387.82,Single-ply,SBD,M
Boys,67.13,9,Christian Eubanks,Clyde,63.05,124.74,70.31,170.1,365.14,Single-ply,SBD,M
Boys,67.13,10,Billy Allen,Abilene Cooper,60.96,127.01,68.04,136.08,331.12,Single-ply,SBD,M
Boys,67.13,11,Gerardo Gonzalez,Clyde,65.59,131.54,83.91,113.4,328.85,Single-ply,SBD,M
Boys,67.13,12,Anthony Olvera,Hamlin,66.59,90.72,74.84,92.99,258.55,Single-ply,SBD,M
Boys,67.13,13,Cedar Mcillwain,Hamlin,62.78,92.99,52.16,97.52,242.67,Single-ply,SBD,M
Boys,67.13,14,Mark Jernigan,Hamlin,61.87,65.77,58.97,88.45,213.19,Single-ply,SBD,M
Boys,67.13,DQ,Matthew Johnson #9,Miles,66.77,136.08,,,,Single-ply,SBD,M
Boys,67.13,DQ,Colter Martin,Ranger,63.14,,,,,Single-ply,SBD,M
Boys,74.84,DQ,Dakota Brewster,Clyde,67.31,,,,,Single-ply,SBD,M
Boys,74.84,1,Kneeland Donnelly,Hawley,71.58,229.06,136.08,215.46,580.6,Single-ply,SBD,M
Boys,74.84,2,Clancy Manuel,Hawley,74.12,235.87,124.74,204.12,564.72,Single-ply,SBD,M
Boys,74.84,3,Ryan Linebaugh,Sweetwater,74.75,206.38,124.74,213.19,544.31,Single-ply,SBD,M
Boys,74.84,4,Jose Rangel,Roscoe,71.94,195.04,120.2,179.17,494.42,Single-ply,SBD,M
Boys,74.84,5,Aaron Cantu,Abilene Cooper,73.75,165.56,120.2,190.51,476.27,Single-ply,SBD,M
Boys,74.84,6,Brandon Dodson,Abilene Cooper,70.31,170.1,97.52,181.44,449.06,Single-ply,SBD,M
Boys,74.84,7,Blayne Darnell,Clyde,72.21,158.76,92.99,181.44,433.18,Single-ply,SBD,M
Boys,74.84,8,Darius Collier,Abilene,74.07,181.44,83.91,167.83,433.18,Single-ply,SBD,M
Boys,74.84,9,Fidel Perez,Dublin,72.85,158.76,99.79,156.49,415.04,Single-ply,SBD,M
Boys,74.84,10,Daniel Sánchez,Rising Star,71.76,133.81,106.59,163.29,403.7,Single-ply,SBD,M
Boys,74.84,11,Mason Latham,Clyde,74.66,142.88,81.65,172.37,396.89,Single-ply,SBD,M
Boys,74.84,12,Morgan Smith #9,Tuscola Jim Ned,71.49,142.88,92.99,142.88,378.75,Single-ply,SBD,M
Boys,74.84,13,Joey Munoz,Dublin,72.39,147.42,92.99,138.35,378.75,Single-ply,SBD,M
Boys,74.84,14,Colton Honea,Tuscola Jim Ned,69.49,140.61,90.72,145.15,376.48,Single-ply,SBD,M
Boys,74.84,15,James Baird,Clyde,71.49,133.81,83.91,156.49,374.21,Single-ply,SBD,M
Boys,82.1,16,Tyler Hall,Clyde,75.07,136.08,79.38,136.08,351.53,Single-ply,SBD,M
Boys,74.84,17,Brannon Stegemoellar,Hamlin,73.03,120.2,65.77,149.69,335.66,Single-ply,SBD,M
Boys,74.84,DQ,Cristian Delatorre,Ranger,71.67,145.15,,,,Single-ply,SBD,M
Boys,89.81,1,Levi Irby,Hawley,82.28,272.16,158.76,226.8,657.71,Single-ply,SBD,M
Boys,82.1,2,Sam Nemir,Sweetwater,80.47,226.8,147.42,229.06,603.28,Single-ply,SBD,M
Boys,82.1,3,Landon Jones,Roscoe,81.1,204.12,104.33,208.65,517.1,Single-ply,SBD,M
Boys,82.1,4,Devin Martinez,Clyde,78.2,197.31,102.06,215.46,514.83,Single-ply,SBD,M
Boys,82.1,5,Austin Rain,Clyde,79.65,181.44,108.86,215.46,505.76,Single-ply,SBD,M
Boys,82.1,6,Kaleb Cory,Abilene Cooper,81.28,201.85,88.45,204.12,494.42,Single-ply,SBD,M
Boys,82.1,7,Aric Ramzanalli,Hawley,82.1,192.78,92.99,192.78,478.54,Single-ply,SBD,M
Boys,89.81,8,Josh Helzer,Hawley,82.28,181.44,102.06,183.7,467.2,Single-ply,SBD,M
Boys,82.1,9,Charles McGill,Abilene,80.01,158.76,108.86,185.97,453.59,Single-ply,SBD,M
Boys,89.81,10,Dillon Burton,Clyde,82.28,165.56,92.99,183.7,442.25,Single-ply,SBD,M
Boys,82.1,11,Dylan Byerly,Hamlin,79.74,142.88,117.93,174.63,435.45,Single-ply,SBD,M
Boys,82.1,12,Dakota Bomar,Cross Plains,77.29,154.22,83.91,190.51,428.64,Single-ply,SBD,M
Boys,82.1,13,Damian Hatcher,Dublin,81.1,154.22,111.13,154.22,419.57,Single-ply,SBD,M
Boys,82.1,14,Steven Le,Sweetwater,78.56,154.22,83.91,165.56,403.7,Single-ply,SBD,M
Boys,82.1,15,Brandon Reed,Rising Star,81.19,140.61,95.25,163.29,399.16,Single-ply,SBD,M
Boys,82.1,16,Victor Cano,Miles,76.38,154.22,83.91,149.69,387.82,Single-ply,SBD,M
Boys,82.1,17,Herik Bustamante,Rising Star,76.38,136.08,83.91,165.56,385.55,Single-ply,SBD,M
Boys,82.1,18,Zach Garcia,Sweetwater,79.65,133.81,79.38,154.22,367.41,Single-ply,SBD,M
Boys,82.1,19,Jose Martinez,Rising Star,76.38,129.27,83.91,142.88,356.07,Single-ply,SBD,M
Boys,82.1,20,Colton Wilson,Miles,81.74,106.59,79.38,129.27,315.25,Single-ply,SBD,M
Boys,82.1,21,Tristin Tepilicek,Rising Star,81.37,113.4,72.57,127.01,312.98,Single-ply,SBD,M
Boys,89.81,DQ,Cole Dement,Ranger,82.28,136.08,,,,Single-ply,SBD,M
Boys,82.1,DQ,Tyler Lackey,Abilene,76.75,,,,,Single-ply,SBD,M
Boys,89.81,1,Austin Sellers,Hawley,89.45,272.16,181.44,226.8,680.39,Single-ply,SBD,M
Boys,89.81,2,Jacob Lopez,Clyde,89.09,204.12,136.08,204.12,544.31,Single-ply,SBD,M
Boys,89.81,3,Jamal Session,Abilene Cooper,83.73,219.99,120.2,192.78,532.97,Single-ply,SBD,M
Boys,89.81,4,Pablo Hernandez,Abilene Cooper,85.18,174.63,127.01,201.85,503.49,Single-ply,SBD,M
Boys,99.79,5,Joey Haddad,Clyde,89.99,170.1,124.74,206.38,501.22,Single-ply,SBD,M
Boys,89.81,6,Rudy Rodriguez,Dublin,86.45,190.51,106.59,197.31,494.42,Single-ply,SBD,M
Boys,89.81,7,Mike Prather,Hawley,88,183.7,104.33,170.1,458.13,Single-ply,SBD,M
Boys,99.79,8,Jacob Stewart,Abilene Cooper,89.99,181.44,106.59,170.1,458.13,Single-ply,SBD,M
Boys,89.81,9,Alex Agnew,Rising Star,86,158.76,106.59,167.83,433.18,Single-ply,SBD,M
Boys,89.81,10,Brandon Hobbs,Clyde,85.73,136.08,77.11,170.1,383.29,Single-ply,SBD,M
Boys,89.81,11,Josh Hale,Abilene Cooper,88.45,149.69,95.25,138.35,383.29,Single-ply,SBD,M
Boys,89.81,12,Aaron McAndrew,Hawley,88.54,151.95,74.84,151.95,378.75,Single-ply,SBD,M
Boys,89.81,13,Izmiel Torres,Dublin,82.46,136.08,88.45,151.95,376.48,Single-ply,SBD,M
Boys,89.81,DQ,William Coleman,Abilene Cooper,85.64,,,,,Single-ply,SBD,M
Boys,89.81,DQ,Tanner Brown,Abilene Cooper,89.27,129.27,,,,Single-ply,SBD,M
Boys,89.81,DQ,Alex Garcia #1,Sweetwater,84.19,195.04,108.86,,,Single-ply,SBD,M
Boys,89.81,DQ,Kyle Lambert,Sweetwater,89.45,,,,,Single-ply,SBD,M
Boys,99.79,1,Corey Hatcher,Roscoe,99.34,238.14,127.01,244.94,610.08,Single-ply,SBD,M
Boys,99.79,2,Justin Goble,Clyde,95.89,233.6,147.42,226.8,607.81,Single-ply,SBD,M
Boys,99.79,3,Sheldon Libey,Cross Plains,91.72,219.99,140.61,215.46,576.06,Single-ply,SBD,M
Boys,99.79,4,Anthony McLendon,Abilene,96.34,226.8,136.08,199.58,562.45,Single-ply,SBD,M
Boys,99.79,5,Tanner Fannin,Clyde,98.88,210.92,124.74,219.99,555.65,Single-ply,SBD,M
Boys,99.79,6,Alex Toomer,Abilene Cooper,96.8,213.19,131.54,206.38,551.11,Single-ply,SBD,M
Boys,99.79,7,Ryan Childress,Abilene,95.16,208.65,127.01,195.04,530.7,Single-ply,SBD,M
Boys,99.79,8,Pate Hughes,Abilene,90.36,226.8,104.33,195.04,526.17,Single-ply,SBD,M
Boys,99.79,9,Kenderick Hunter,Abilene,92.08,199.58,120.2,199.58,519.36,Single-ply,SBD,M
Boys,99.79,10,Jose Escamilla,Abilene Cooper,93.08,188.24,120.2,204.12,512.56,Single-ply,SBD,M
Boys,99.79,11,Oscar Valdez,Clyde,99.43,204.12,115.67,185.97,505.76,Single-ply,SBD,M
Boys,99.79,12,Kendall Rea,Sweetwater,96.34,190.51,129.27,183.7,503.49,Single-ply,SBD,M
Boys,99.79,13,Chad Easley,Clyde,95.44,181.44,129.27,179.17,489.88,Single-ply,SBD,M
Boys,99.79,14,Michael Woods,Merkel,99.43,176.9,104.33,192.78,474,Single-ply,SBD,M
Boys,99.79,15,Zac Smurphat,Tuscola Jim Ned,90.26,167.83,104.33,167.83,439.98,Single-ply,SBD,M
Boys,99.79,16,Ambrosio Rodriguez,Dublin,91.81,161.03,79.38,170.1,410.5,Single-ply,SBD,M
Boys,99.79,17,Paul Smith #7,Abilene Cooper,93.08,120.2,124.74,154.22,399.16,Single-ply,SBD,M
Boys,109.77,1,Mateo Gonzales,Sweetwater,102.87,242.67,154.22,244.94,641.83,Single-ply,SBD,M
Boys,109.77,2,Garrett Moenning,Cross Plains,104.6,201.85,122.47,258.55,582.87,Single-ply,SBD,M
Boys,109.77,3,Roy Alaniz,Stamford,107.59,204.12,122.47,201.85,528.44,Single-ply,SBD,M
Boys,109.77,4,Addison Schreffler,Clyde,108.5,204.12,147.42,172.37,523.9,Single-ply,SBD,M
Boys,109.77,5,John Flores,Rotan,109.68,201.85,127.01,195.04,523.9,Single-ply,SBD,M
Boys,109.77,6,Russell Holland,Clyde,102.51,192.78,124.74,188.24,505.76,Single-ply,SBD,M
Boys,109.77,7,Lucas Raley,Abilene Cooper,106.59,183.7,104.33,201.85,489.88,Single-ply,SBD,M
Boys,109.77,8,Jordan Pitcox,Eden,103.33,188.24,106.59,190.51,485.34,Single-ply,SBD,M
Boys,109.77,9,Preston Posuk,Cross Plains,105.05,179.17,108.86,190.51,478.54,Single-ply,SBD,M
Boys,109.77,10,Michael Mudd,Dublin,105.87,163.29,124.74,174.63,462.66,Single-ply,SBD,M
Boys,109.77,11,Terry Huff,Clyde,104.42,147.42,113.4,170.1,430.91,Single-ply,SBD,M
Boys,109.77,12,Alex Rodriguez #5,Dublin,109.13,147.42,106.59,151.95,405.97,Single-ply,SBD,M
Boys,109.77,DQ,Brock Thetford,Abilene,107.59,156.49,108.86,,,Single-ply,SBD,M
Boys,109.77,DQ,Billy Jones,Tuscola Jim Ned,107.77,127.01,90.72,,,Single-ply,SBD,M
Boys,124.74,1,Chantz Anderson,Abilene,113.4,240.4,156.49,190.51,587.4,Single-ply,SBD,M
Boys,124.74,2,Kj McFadden,Merkel,115.39,201.85,108.86,197.31,508.02,Single-ply,SBD,M
Boys,124.74,3,Garrett Blackwell,Eden,120.47,185.97,108.86,208.65,503.49,Single-ply,SBD,M
Boys,124.74,4,Josh Hunter,Abilene,120.2,197.31,95.25,199.58,492.15,Single-ply,SBD,M
Boys,124.74,5,Angel Caballero,Sweetwater,124.74,197.31,117.93,174.63,489.88,Single-ply,SBD,M
Boys,124.74,6,Chase Saunders,Sweetwater,118.3,181.44,113.4,190.51,485.34,Single-ply,SBD,M
Boys,124.74,7,Jacob McCloskey,Rising Star,112.67,147.42,120.2,158.76,426.38,Single-ply,SBD,M
Boys,124.74,8,Hunter Fannin,Clyde,117.84,147.42,97.52,151.95,396.89,Single-ply,SBD,M
Boys,124.74+,1,Mike Green,Abilene Cooper,155.4,254.01,136.08,238.14,628.23,Single-ply,SBD,M
Boys,124.74+,2,Riley Owens,Abilene Cooper,134.26,263.08,136.08,226.8,625.96,Single-ply,SBD,M
Boys,124.74+,3,Michael Williams,Dublin,131,219.99,151.95,208.65,580.6,Single-ply,SBD,M
Boys,124.74+,4,Brex Burris,Abilene Cooper,131.63,215.46,124.74,204.12,544.31,Single-ply,SBD,M
Boys,124.74+,5,Conner Willis,Tuscola Jim Ned,127.46,204.12,115.67,192.78,512.56,Single-ply,SBD,M
