Division,WeightClassKg,Place,Name,Team,BodyweightKg,Best3SquatKg,Best3BenchKg,Best3DeadliftKg,TotalKg,Equipment,Event,Sex
Boys,59.87,1,Roger Lozano,Roma,55.97,145.15,90.72,172.37,408.23,Single-ply,SBD,M
Boys,55.79,2,Hector Villegas,Roma,52.8,154.22,81.65,167.83,403.7,Single-ply,SBD,M
Boys,55.79,3,Josh Baez,Falfurrias,55.79,158.76,79.38,158.76,396.89,Single-ply,SBD,M
Boys,55.79,4,Estevan Galvan,Freer,55.07,142.88,79.38,149.69,371.95,Single-ply,SBD,M
Boys,55.79,5,Jesus Trevino,Zapata,54.98,131.54,72.57,163.29,367.41,Single-ply,SBD,M
Boys,55.79,6,Anthony Sanchez,Falfurrias,55.52,129.27,77.11,149.69,356.07,Single-ply,SBD,M
Boys,55.79,7,Leo Tanguma,Rio Grande City Grulla,53.25,115.67,79.38,127.01,322.05,Single-ply,SBD,M
Boys,59.87,8,Luis Garza,Laredo Nixon,55.97,104.33,65.77,138.35,308.44,Single-ply,SBD,M
Boys,59.87,9,Jorge Arredondo,Hebbronville,55.93,97.52,72.57,106.59,276.69,Single-ply,SBD,M
Boys,59.87,1,Edgar Barbosa,Laredo Cigarroa,57.88,204.12,113.4,183.7,501.22,Single-ply,SBD,M
Boys,59.87,2,Eric Oliva,Laredo United South,57.79,183.7,106.59,179.17,469.47,Single-ply,SBD,M
Boys,67.13,3,Jonathan Pena,Laredo United South,59.96,165.56,102.06,181.44,449.06,Single-ply,SBD,M
Boys,67.13,4,Joel Aguilar,Roma,60.06,149.69,74.84,145.15,369.68,Single-ply,SBD,M
Boys,67.13,5,Juan Carmona,Laredo Nixon,59.96,113.4,79.38,165.56,358.34,Single-ply,SBD,M
Boys,67.13,6,Maclovio Gomez,Zapata,60.06,124.74,72.57,151.95,349.27,Single-ply,SBD,M
Boys,59.87,7,Isaac Ramos,Bruni,57.15,113.4,61.23,131.54,306.17,Single-ply,SBD,M
Boys,59.87,8,Jonathan Vedia,Bruni,56.25,97.52,61.23,115.67,274.42,Single-ply,SBD,M
Boys,67.13,1,David Lopez,Laredo United South,64.95,204.12,140.61,224.53,569.26,Single-ply,SBD,M
Boys,74.84,2,Elijio Montalvo,Falfurrias,67.22,210.92,129.27,224.53,564.72,Single-ply,SBD,M
Boys,74.84,3,Cesar Alfaro,Laredo United South,67.22,206.38,131.54,224.53,562.45,Single-ply,SBD,M
Boys,67.13,4,Arnold Bednorz,Freer,66.04,190.51,122.47,183.7,496.68,Single-ply,SBD,M
Boys,67.13,5,Ted Crain,Falfurrias,63.23,204.12,99.79,188.24,492.15,Single-ply,SBD,M
Boys,67.13,6,Everando Guerrero,Hebbronville,64.41,199.58,95.25,195.04,489.88,Single-ply,SBD,M
Boys,67.13,7,Aaron Serrato,Freer,67.04,172.37,102.06,210.92,485.34,Single-ply,SBD,M
Boys,74.84,8,Jesus Gomez,Roma,67.31,172.37,99.79,208.65,480.81,Single-ply,SBD,M
Boys,67.13,9,Marcos Casas,Falfurrias,60.69,151.95,88.45,179.17,419.57,Single-ply,SBD,M
Boys,67.13,10,Jordan Cole,Aransas Pass,63.96,158.76,99.79,158.76,417.3,Single-ply,SBD,M
Boys,67.13,11,Brandon Garza,Hebbronville,64.59,140.61,83.91,170.1,394.63,Single-ply,SBD,M
Boys,67.13,12,Alfredo Resendiz,Zapata,62.69,131.54,83.91,145.15,360.61,Single-ply,SBD,M
Boys,67.13,13,Jonathon Ramirez,Bruni,61.05,124.74,86.18,142.88,353.8,Single-ply,SBD,M
Boys,67.13,14,Arturo Falcon,Rio Grande City Grulla,67.04,136.08,88.45,124.74,349.27,Single-ply,SBD,M
Boys,67.13,15,Paul Torres,Aransas Pass,66.22,106.59,65.77,142.88,315.25,Single-ply,SBD,M
Boys,67.13,16,Jose Rodriguez,Laredo Nixon,62.14,120.2,68.04,108.86,297.1,Single-ply,SBD,M
Boys,67.13,17,Fernando Arevalo,Robstown,61.23,83.91,65.77,136.08,285.76,Single-ply,SBD,M
Boys,67.13,DQ,Danny Hernandez,Laredo Nixon,65.23,,,,,Single-ply,SBD,M
Boys,74.84,1,Josue Valdez,Zapata,74.39,229.06,136.08,240.4,605.55,Single-ply,SBD,M
Boys,82.1,2,Edgar Trejo,Laredo United South,75.02,199.58,115.67,226.8,542.04,Single-ply,SBD,M
Boys,74.84,3,Adan Cantu,Rio Grande City Grulla,73.75,226.8,111.13,183.7,521.63,Single-ply,SBD,M
Boys,82.1,4,Arnold Sauceda,Hebbronville,75.02,213.19,106.59,199.58,519.36,Single-ply,SBD,M
Boys,82.1,5,Dylan Vasquez,Falfurrias,75.02,190.51,99.79,204.12,494.42,Single-ply,SBD,M
Boys,74.84,6,Rudy Luna,Robstown,70.49,176.9,111.13,204.12,492.15,Single-ply,SBD,M
Boys,74.84,7,Eric Estrada,Roma,73.3,172.37,106.59,172.37,451.32,Single-ply,SBD,M
Boys,74.84,8,Rene Ramirez,Hebbronville,73.57,145.15,106.59,192.78,444.52,Single-ply,SBD,M
Boys,74.84,9,Adrian Garcia,Roma,68.86,172.37,86.18,156.49,415.04,Single-ply,SBD,M
Boys,74.84,10,Mark Molina,Laredo Cigarroa,72.3,151.95,63.5,181.44,396.89,Single-ply,SBD,M
Boys,74.84,11,Rene Ruiz,Hebbronville,72.48,142.88,92.99,161.03,396.89,Single-ply,SBD,M
Boys,74.84,12,Eugene DeLeon,Freer,73.48,147.42,77.11,170.1,394.63,Single-ply,SBD,M
Boys,74.84,13,Jose Daniel De Leon,Laredo Nixon,69.58,136.08,79.38,167.83,383.29,Single-ply,SBD,M
Boys,74.84,DQ,Raul Solis,Laredo Cigarroa,67.68,,,,,Single-ply,SBD,M
Boys,82.1,1,Alfonso Montalvo,Riviera Kaufer,80.56,272.16,158.76,256.28,687.19,Single-ply,SBD,M
Boys,89.81,2,Victor Ramos,Laredo United South,82.19,210.92,136.08,219.99,566.99,Single-ply,SBD,M
Boys,89.81,3,Daniel Briones,Laredo United South,82.28,195.04,129.27,224.53,548.85,Single-ply,SBD,M
Boys,82.1,4,Richard Rodriguez,Ben Bolt-Palito Blanco,78.47,206.38,129.27,208.65,544.31,Single-ply,SBD,M
Boys,82.1,5,Marco DeLuna,Laredo United South,81.19,195.04,131.54,215.46,542.04,Single-ply,SBD,M
Boys,82.1,6,Anthony Garza,Falfurrias,77.93,190.51,111.13,222.26,523.9,Single-ply,SBD,M
Boys,82.1,7,Jacob McDavid,Aransas Pass,81.65,185.97,117.93,213.19,517.1,Single-ply,SBD,M
Boys,82.1,8,Isai Perez,Rio Grande City Grulla,80.01,185.97,111.13,197.31,494.42,Single-ply,SBD,M
Boys,82.1,9,Nazario Chapa,Aransas Pass,78.11,185.97,129.27,176.9,492.15,Single-ply,SBD,M
Boys,82.1,10,Gilbert Jasso,Robstown,78.93,174.63,95.25,195.04,464.93,Single-ply,SBD,M
Boys,82.1,11,Cord Casas,Freer,80.92,174.63,92.99,192.78,460.4,Single-ply,SBD,M
Boys,82.1,12,Jacob Garza,Hebbronville,76.75,183.7,97.52,156.49,437.72,Single-ply,SBD,M
Boys,82.1,13,Eddie Salinas,Rio Grande City Grulla,77.47,145.15,79.38,172.37,396.89,Single-ply,SBD,M
Boys,89.81,14,Felipe Ruiz,Freer,82.28,111.13,72.57,122.47,306.17,Single-ply,SBD,M
Boys,82.1,DQ,Jaurez Medina,Riviera Kaufer,81.1,,,,,Single-ply,SBD,M
Boys,82.1,DQ,German Uscanga,Robstown,79.56,,,,,Single-ply,SBD,M
Boys,82.1,DQ,Joel Elizondo,Zapata,79.2,,,,,Single-ply,SBD,M
Boys,89.81,DQ,Frank Garcia,Laredo Martin,82.28,,,,,Single-ply,SBD,M
Boys,82.1,DQ,Javier Botello,Laredo Nixon,81.1,,,,,Single-ply,SBD,M
Boys,89.81,1,Andrew Garza,Falfurrias,89.18,226.8,136.08,238.14,601.01,Single-ply,SBD,M
Boys,89.81,2,Kevin Pena,Robstown,82.37,224.53,142.88,231.33,598.74,Single-ply,SBD,M
Boys,89.81,3,Jesus Roiz,Rio Grande City Grulla,89.27,226.8,149.69,204.12,580.6,Single-ply,SBD,M
Boys,89.81,4,Jacob Longoria,Riviera Kaufer,88.72,195.04,140.61,206.38,542.04,Single-ply,SBD,M
Boys,89.81,5,Jose Anaya,Laredo United South,85.37,197.31,97.52,206.38,501.22,Single-ply,SBD,M
Boys,89.81,6,Jeremy Alaniz,Freer,85.73,181.44,113.4,199.58,494.42,Single-ply,SBD,M
Boys,89.81,7,Edmund Ugorgi,Aransas Pass,83.28,129.27,140.61,181.44,451.32,Single-ply,SBD,M
Boys,99.79,8,Cecilio Garcia,Laredo Nixon,89.9,147.42,106.59,181.44,435.45,Single-ply,SBD,M
Boys,89.81,9,Eloy Soto,Laredo Cigarroa,83.19,154.22,95.25,158.76,408.23,Single-ply,SBD,M
Boys,99.79,1,Matt Garcia,Ben Bolt-Palito Blanco,96.71,290.3,195.04,283.5,768.84,Single-ply,SBD,M
Boys,99.79,2,Tony Ledesma,Riviera Kaufer,93.8,226.8,156.49,272.16,655.44,Single-ply,SBD,M
Boys,109.77,3,Paul Gonzalez,Laredo United South,99.84,242.67,142.88,231.33,616.89,Single-ply,SBD,M
Boys,99.79,4,Edward Silva,Robstown,94.71,208.65,111.13,224.53,544.31,Single-ply,SBD,M
Boys,99.79,5,Rodrigo Saldivar,Zapata,95.71,192.78,124.74,185.97,503.49,Single-ply,SBD,M
Boys,99.79,6,Andrew Pena,Robstown,99.43,204.12,104.33,188.24,496.68,Single-ply,SBD,M
Boys,99.79,7,Frank Rossi,Hebbronville,96.25,208.65,83.91,181.44,474,Single-ply,SBD,M
Boys,99.79,8,Marcos Guterez,Hebbronville,97.52,167.83,88.45,147.42,403.7,Single-ply,SBD,M
Boys,99.79,9,Josh Carroll,Freer,95.44,102.06,79.38,151.95,333.39,Single-ply,SBD,M
Boys,99.79,10,Mark Duron,Laredo Martin,96.98,265.35,,,265.35,Single-ply,S,M
Boys,99.79,DQ,Leo Gonzalez,Robstown,98.88,,,,,Single-ply,S,M
Boys,99.79,DQ,David Garcia,Riviera Kaufer,95.16,,,,,Single-ply,S,M
Boys,99.79,DQ,Rogelio Rodriguez,Zapata,95.25,,,,,Single-ply,S,M
Boys,99.79,DQ,Silvestre Bustamonte,Zapata,98.43,208.65,,,,Single-ply,S,M
Boys,99.79,DQ,Joe de la Cruz,Rio Grande City Grulla,99.52,,,,,Single-ply,S,M
Boys,109.77,1,John Arguijo,Laredo Martin,100.61,226.8,120.2,222.26,569.26,Single-ply,SBD,M
Boys,109.77,2,Kasey Hosey,Robstown,103.51,163.29,122.47,226.8,512.56,Single-ply,SBD,M
Boys,109.77,3,Jonathan Guzman,Roma,101.33,204.12,88.45,213.19,505.76,Single-ply,SBD,M
Boys,109.77,4,Victor Nenque,Laredo Nixon,107.32,192.78,108.86,195.04,496.68,Single-ply,SBD,M
Boys,109.77,5,Robert Vargas,Hebbronville,102.87,190.51,99.79,170.1,460.4,Single-ply,SBD,M
Boys,109.77,6,Jose Barbarena,Laredo Nixon,104.42,158.76,111.13,158.76,428.64,Single-ply,SBD,M
Boys,109.77,DQ,Bobby Garza,Falfurrias,101.51,,,,,Single-ply,SBD,M
Boys,124.74,1,Frank Moreno,Zapata,122.29,299.37,158.76,272.16,730.28,Single-ply,SBD,M
Boys,124.74+,2,Jose Flores #2,Laredo Cigarroa,124.83,269.89,183.7,265.35,718.94,Single-ply,SBD,M
Boys,124.74,3,Ruben Hinojosa,Roma,124.65,249.48,117.93,222.26,589.67,Single-ply,SBD,M
Boys,124.74,4,Aaron Barrera,Rio Grande City Grulla,110.59,210.92,151.95,204.12,566.99,Single-ply,SBD,M
Boys,124.74,5,Jacob Chapa,Bruni,112.49,219.99,120.2,210.92,551.11,Single-ply,SBD,M
Boys,124.74,6,Raul Gomez,Laredo Cigarroa,121.93,113.4,61.23,145.15,319.78,Single-ply,SBD,M
Boys,124.74,DQ,Manuel Navarro,Zapata,124.01,235.87,,,,Single-ply,SBD,M
Boys,124.74+,1,Antonio Galvan,Aransas Pass,142.52,317.51,172.37,235.87,725.75,Single-ply,SBD,M
Boys,124.74+,2,Rudy Flores,Laredo United South,138.35,283.5,172.37,263.08,718.94,Single-ply,SBD,M
Boys,124.74+,3,Hector Garza,Robstown,133.9,260.82,149.69,226.8,637.3,Single-ply,SBD,M
Boys,124.74+,4,Lance McDonald,Robstown,141.88,231.33,142.88,251.74,625.96,Single-ply,SBD,M
Boys,124.74+,5,Victor Lopez,Aransas Pass,142.88,226.8,142.88,201.85,571.53,Single-ply,SBD,M
Boys,124.74+,6,Jerry Urdiales,Laredo Nixon,138.07,226.8,117.93,215.46,560.19,Single-ply,SBD,M
Boys,124.74+,7,Bobby Pulido,Falfurrias,127.28,172.37,145.15,233.6,551.11,Single-ply,SBD,M
Boys,124.74+,DQ,David Salazar,Freer,129.55,183.7,,,,Single-ply,SBD,M
