Place,Name,Sex,BirthDate,Age,Country,Equipment,Division,WeightClassKg,BodyweightKg,Squat1Kg,Squat2Kg,Squat3Kg,Best3SquatKg,Bench1Kg,Bench2Kg,Bench3Kg,Best3BenchKg,Deadlift1Kg,Deadlift2Kg,Deadlift3Kg,Best3DeadliftKg,TotalKg,Event,Team
1,Merlin Anayansy Tepaz Tomas,F,1992-06-14,28,Guatemala,Single-ply,Open,57,56.7,102.06,111.13,,111.13,38.56,47.63,,47.63,92.99,-102.06,,92.99,251.74,SBD,Chimaltenango
2,Sharon Pamela Vivar Suarez,F,1993-05-23,27,Guatemala,Single-ply,Open,57,54.5,20.41,,,20.41,20.41,,,20.41,20.41,,,20.41,61.23,SBD,Chimaltenango
1,Julio Alexander Diaz Alvarez,M,1998-09-16,22,Guatemala,Single-ply,Junior,66,65.1,-142.88,165.56,-170.1,165.56,79.38,-83.91,-88.45,79.38,165.56,174.63,183.7,183.7,428.64,SBD,Guatemala
1,Ermes Estuardo Muñoz Muñoz,M,1998-04-03,22,Guatemala,Single-ply,Junior,83,82.7,174.63,183.7,188.24,188.24,115.67,124.74,,124.74,174.63,183.7,,183.7,496.68,SBD,Chimaltenango
DQ,Francisco Javier Cantoral Caballeros,M,2001-02-26,19,Guatemala,Single-ply,Junior,83,80.25,-151.95,-165.56,-170.1,,115.67,,,115.67,174.63,183.7,192.78,192.78,,SBD,Guatemala
1,Juan Ezequiel Hernandez Chajon,M,1963-04-10,57,Guatemala,Single-ply,Master III,83,75.8,124.74,142.88,151.95,151.95,92.99,102.06,111.13,111.13,142.88,156.49,165.56,165.56,428.64,SBD,Chimaltenango
1,Jose David Pascual Francisco,M,1994-10-05,26,Guatemala,Single-ply,Open,53,52.35,-120.2,124.74,-129.27,124.74,52.16,56.7,61.23,61.23,124.74,133.81,138.35,138.35,324.32,SBD,Guatemala
1,Julio Alexander Diaz Alvarez,M,1998-09-16,22,Guatemala,Single-ply,Open,66,65.1,-142.88,165.56,-170.1,165.56,79.38,-83.91,-88.45,79.38,165.56,174.63,183.7,183.7,428.64,SBD,Guatemala
2,Angel David Arroyo Acuta,M,1996-06-28,24,Guatemala,Single-ply,Open,66,61.6,142.88,151.95,-156.49,151.95,74.84,88.45,,88.45,183.7,-192.78,,183.7,424.11,SBD,Chimaltenango
1,Dennis Gustavo Búrbano García,M,1990-10-07,30,Guatemala,Single-ply,Open,74,68.2,165.56,,,165.56,102.06,,,102.06,183.7,,,183.7,451.32,SBD,Chimaltenango
DQ,Hector Abraham Chen Ramos,M,1996-02-03,24,Guatemala,Single-ply,Open,74,66.8,-106.59,-115.67,-170.1,,79.38,83.91,-88.45,83.91,133.81,142.88,156.49,156.49,,SBD,Guatemala
1,Michel Jorge Vasquez Gonzalez,M,1987-06-04,33,Guatemala,Single-ply,Open,83,82.9,-238.14,242.67,,242.67,161.03,,,161.03,229.06,-238.14,,229.06,632.76,SBD,Chimaltenango
2,Ermes Estuardo Muñoz Muñoz,M,1998-04-03,22,Guatemala,Single-ply,Open,83,82.7,174.63,183.7,188.24,188.24,115.67,124.74,,124.74,174.63,183.7,,183.7,496.68,SBD,Chimaltenango
3,Wilder Jose Lopez Ventura,M,2003-08-28,17,Guatemala,Single-ply,Open,83,77.7,183.7,192.78,201.85,201.85,83.91,-92.99,,83.91,-183.7,197.31,,197.31,483.08,SBD,Chimaltenango
4,Juan Ezequiel Hernandez Chajon,M,1963-04-10,57,Guatemala,Single-ply,Open,83,75.8,124.74,142.88,151.95,151.95,92.99,102.06,111.13,111.13,142.88,156.49,165.56,165.56,428.64,SBD,Chimaltenango
DQ,Francisco Javier Cantoral Caballeros,M,2001-02-26,19,Guatemala,Single-ply,Open,83,80.25,-151.95,-165.56,-170.1,,115.67,,,115.67,174.63,183.7,192.78,192.78,,SBD,Guatemala
1,Eduardo Javier Noches Trejo,M,2005-04-05,15,Guatemala,Single-ply,Open,93,90.85,-92.99,102.06,115.67,115.67,-61.23,65.77,74.84,74.84,138.35,-142.88,-151.95,138.35,328.85,SBD,Guatemala
1,Eduardo Javier Noches Trejo,M,2005-04-05,15,Guatemala,Single-ply,Subjunior,93,90.85,-92.99,102.06,115.67,115.67,-61.23,65.77,74.84,74.84,138.35,-142.88,-151.95,138.35,328.85,SBD,Guatemala
